{
	"info": {
		"_postman_id": "1b11e3c8-ade5-4395-9715-623114f7156b",
		"name": "Fruits",
		"schema": "https://schema.getpostman.com/json/collection/v2.1.0/collection.json"
	},
	"item": [
		{
			"name": "Auth",
			"item": [
				{
					"name": "Login",
					"request": {
						"method": "POST",
						"header": [
							{
								"key": "Accept",
								"type": "text",
								"value": "application/json"
							},
							{
								"key": "Content-Type",
								"type": "text",
								"value": "application/json"
							}
						],
						"body": {
							"mode": "formdata",
							"formdata": [
								{
									"key": "phone",
									"value": "01270000000",
									"type": "text"
								},
								{
									"key": "password",
									"value": "123456",
									"type": "text"
								}
							],
							"options": {
								"formdata": {}
							}
						},
						"url": {
							"raw": "{{url}}/login",
							"host": [
								"{{url}}"
							],
							"path": [
								"login"
							]
						}
					},
					"response": []
				},
				{
					"name": "Sign up",
					"request": {
						"method": "POST",
						"header": [
							{
								"key": "Accept",
								"type": "text",
								"value": "application/json"
							},
							{
								"key": "Content-Type",
								"type": "text",
								"value": "application/json"
							}
						],
						"body": {
							"mode": "formdata",
							"formdata": [
								{
									"key": "name",
									"value": "Tarek",
									"type": "text"
								},
								{
									"key": "phone",
									"value": "01273280587",
									"type": "text"
								},
								{
									"key": "email",
									"value": "timahfouz262@gmail.com",
									"type": "text"
								},
								{
									"key": "image",
									"type": "file",
									"src": "/E:/Work/wamp64/www/matloob/public/images/products/default6.jpg"
								},
								{
									"key": "password",
									"value": "123456",
									"type": "text"
								},
								{
									"key": "password_confirmation",
									"value": "123456",
									"type": "text"
								}
							],
							"options": {
								"formdata": {}
							}
						},
						"url": {
							"raw": "{{url}}/signup",
							"host": [
								"{{url}}"
							],
							"path": [
								"signup"
							]
						}
					},
					"response": []
				},
				{
					"name": "Logout",
					"protocolProfileBehavior": {
						"disableBodyPruning": true
					},
					"request": {
						"method": "GET",
						"header": [
							{
								"key": "Accept",
								"type": "text",
								"value": "application/json"
							},
							{
								"key": "Content-Type",
								"type": "text",
								"value": "application/json"
							},
							{
								"key": "Authorization",
								"type": "text",
								"value": "Bearer eyJ0eXAiOiJKV1QiLCJhbGciOiJIUzI1NiJ9.eyJpc3MiOiJodHRwOlwvXC9sb2NhbGhvc3RcL3BlcmZ1bWVjb3JuZXJcL3B1YmxpY1wvYXBpXC9sb2dpbiIsImlhdCI6MTU4ODczMzEwMiwibmJmIjoxNTg4NzMzMTAyLCJqdGkiOiJVRldHUEdXU1BYdVhJSExiIiwic3ViIjoxLCJwcnYiOiIyM2JkNWM4OTQ5ZjYwMGFkYjM5ZTcwMWM0MDA4NzJkYjdhNTk3NmY3In0.HVO_N3Aayzn81Q1VytDzVkhSNcAAG46DL8cv3umT724"
							}
						],
						"body": {
							"mode": "formdata",
							"formdata": [],
							"options": {
								"formdata": {}
							}
						},
						"url": {
							"raw": "{{url}}/logout",
							"host": [
								"{{url}}"
							],
							"path": [
								"logout"
							]
						}
					},
					"response": []
				},
				{
					"name": "1- Send Reset Password Request",
					"request": {
						"method": "POST",
						"header": [
							{
								"key": "Content-Type",
								"value": "application/json"
							},
							{
								"key": "Accept",
								"value": "application/json"
							}
						],
						"body": {
							"mode": "formdata",
							"formdata": [
								{
									"key": "email",
									"value": "timahfouz262@gmail.com",
									"type": "text"
								}
							],
							"options": {
								"formdata": {}
							}
						},
						"url": {
							"raw": "{{url}}/forgetPasswordRequest",
							"host": [
								"{{url}}"
							],
							"path": [
								"forgetPasswordRequest"
							]
						}
					},
					"response": [
						{
							"name": "Login",
							"originalRequest": {
								"method": "POST",
								"header": [
									{
										"key": "Content-Type",
										"value": "application/json"
									},
									{
										"key": "Accept",
										"value": "application/json"
									}
								],
								"body": {
									"mode": "formdata",
									"formdata": [
										{
											"key": "phone",
											"value": "01114254513",
											"type": "text"
										},
										{
											"key": "password",
											"value": "123456",
											"type": "text"
										},
										{
											"key": "firebase",
											"value": "asd",
											"type": "text"
										}
									]
								},
								"url": {
									"raw": "http://localhost/soqiaa/public/api/userLogin",
									"protocol": "http",
									"host": [
										"localhost"
									],
									"path": [
										"soqiaa",
										"public",
										"api",
										"userLogin"
									]
								}
							},
							"status": "OK",
							"code": 200,
							"_postman_previewlanguage": "json",
							"header": [
								{
									"key": "Date",
									"value": "Thu, 21 Mar 2019 05:01:43 GMT"
								},
								{
									"key": "Server",
									"value": "Apache/2.4.37 (Win64) PHP/7.2.14"
								},
								{
									"key": "X-Powered-By",
									"value": "PHP/7.2.14"
								},
								{
									"key": "Cache-Control",
									"value": "no-cache, private"
								},
								{
									"key": "X-RateLimit-Limit",
									"value": "60"
								},
								{
									"key": "X-RateLimit-Remaining",
									"value": "59"
								},
								{
									"key": "Content-Length",
									"value": "781"
								},
								{
									"key": "Keep-Alive",
									"value": "timeout=5, max=100"
								},
								{
									"key": "Connection",
									"value": "Keep-Alive"
								},
								{
									"key": "Content-Type",
									"value": "application/json"
								}
							],
							"cookie": [],
							"body": "{\n    \"code\": 200,\n    \"message\": \"تمت العملية بنجاح\",\n    \"data\": {\n        \"id\": 1,\n        \"name\": \"Tarek Mahfouz\",\n        \"email\": null,\n        \"phone\": \"01114254513\",\n        \"image\": \"http://localhost/soqiaa/public/images/users/default.jpg\",\n        \"firebase\": \"asd\",\n        \"status\": 1,\n        \"code\": \"5042\",\n        \"last_seen\": \"2019-03-21 05:01:44\",\n        \"created_at\": \"2019-03-21 04:59:00\",\n        \"updated_at\": \"2019-03-21 05:01:44\",\n        \"access_token\": \"eyJ0eXAiOiJKV1QiLCJhbGciOiJIUzI1NiJ9.eyJpc3MiOiJodHRwOlwvXC9sb2NhbGhvc3RcL3NvcWlhYVwvcHVibGljXC9hcGlcL3VzZXJMb2dpbiIsImlhdCI6MTU1MzE0NDUwNCwibmJmIjoxNTUzMTQ0NTA0LCJqdGkiOiJNZFViNk1mcTFoaDNaa0h1Iiwic3ViIjoxLCJwcnYiOiIyM2JkNWM4OTQ5ZjYwMGFkYjM5ZTcwMWM0MDA4NzJkYjdhNTk3NmY3In0.Bu6cIHCg6SkP-7zbNalrvkvcpEMfYZSWFjsxphlKEX8\",\n        \"token_type\": \"bearer\",\n        \"expires_in\": 0\n    }\n}"
						}
					]
				},
				{
					"name": "2- Rset Password",
					"request": {
						"method": "POST",
						"header": [
							{
								"key": "Content-Type",
								"value": "application/json"
							},
							{
								"key": "Accept",
								"value": "application/json"
							}
						],
						"body": {
							"mode": "formdata",
							"formdata": [
								{
									"key": "email",
									"value": "timahfouz262@gmail.com",
									"type": "text"
								},
								{
									"key": "code",
									"value": "6820",
									"type": "text"
								},
								{
									"key": "password",
									"value": "123456",
									"type": "text"
								},
								{
									"key": "password_confirmation",
									"value": "123456",
									"type": "text"
								}
							],
							"options": {
								"formdata": {}
							}
						},
						"url": {
							"raw": "{{url}}/resetPassword",
							"host": [
								"{{url}}"
							],
							"path": [
								"resetPassword"
							]
						}
					},
					"response": [
						{
							"name": "Login",
							"originalRequest": {
								"method": "POST",
								"header": [
									{
										"key": "Content-Type",
										"value": "application/json"
									},
									{
										"key": "Accept",
										"value": "application/json"
									}
								],
								"body": {
									"mode": "formdata",
									"formdata": [
										{
											"key": "phone",
											"value": "01114254513",
											"type": "text"
										},
										{
											"key": "password",
											"value": "123456",
											"type": "text"
										},
										{
											"key": "firebase",
											"value": "asd",
											"type": "text"
										}
									]
								},
								"url": {
									"raw": "http://localhost/soqiaa/public/api/userLogin",
									"protocol": "http",
									"host": [
										"localhost"
									],
									"path": [
										"soqiaa",
										"public",
										"api",
										"userLogin"
									]
								}
							},
							"status": "OK",
							"code": 200,
							"_postman_previewlanguage": "json",
							"header": [
								{
									"key": "Date",
									"value": "Thu, 21 Mar 2019 05:01:43 GMT"
								},
								{
									"key": "Server",
									"value": "Apache/2.4.37 (Win64) PHP/7.2.14"
								},
								{
									"key": "X-Powered-By",
									"value": "PHP/7.2.14"
								},
								{
									"key": "Cache-Control",
									"value": "no-cache, private"
								},
								{
									"key": "X-RateLimit-Limit",
									"value": "60"
								},
								{
									"key": "X-RateLimit-Remaining",
									"value": "59"
								},
								{
									"key": "Content-Length",
									"value": "781"
								},
								{
									"key": "Keep-Alive",
									"value": "timeout=5, max=100"
								},
								{
									"key": "Connection",
									"value": "Keep-Alive"
								},
								{
									"key": "Content-Type",
									"value": "application/json"
								}
							],
							"cookie": [],
							"body": "{\n    \"code\": 200,\n    \"message\": \"تمت العملية بنجاح\",\n    \"data\": {\n        \"id\": 1,\n        \"name\": \"Tarek Mahfouz\",\n        \"email\": null,\n        \"phone\": \"01114254513\",\n        \"image\": \"http://localhost/soqiaa/public/images/users/default.jpg\",\n        \"firebase\": \"asd\",\n        \"status\": 1,\n        \"code\": \"5042\",\n        \"last_seen\": \"2019-03-21 05:01:44\",\n        \"created_at\": \"2019-03-21 04:59:00\",\n        \"updated_at\": \"2019-03-21 05:01:44\",\n        \"access_token\": \"eyJ0eXAiOiJKV1QiLCJhbGciOiJIUzI1NiJ9.eyJpc3MiOiJodHRwOlwvXC9sb2NhbGhvc3RcL3NvcWlhYVwvcHVibGljXC9hcGlcL3VzZXJMb2dpbiIsImlhdCI6MTU1MzE0NDUwNCwibmJmIjoxNTUzMTQ0NTA0LCJqdGkiOiJNZFViNk1mcTFoaDNaa0h1Iiwic3ViIjoxLCJwcnYiOiIyM2JkNWM4OTQ5ZjYwMGFkYjM5ZTcwMWM0MDA4NzJkYjdhNTk3NmY3In0.Bu6cIHCg6SkP-7zbNalrvkvcpEMfYZSWFjsxphlKEX8\",\n        \"token_type\": \"bearer\",\n        \"expires_in\": 0\n    }\n}"
						}
					]
				}
			],
			"protocolProfileBehavior": {}
		},
		{
			"name": "Public",
			"item": [
				{
					"name": "Get Categories",
					"request": {
						"method": "GET",
						"header": [
							{
								"key": "Accept",
								"value": "application/json",
								"type": "text"
							},
							{
								"key": "Content-Type",
								"value": "application/json",
								"type": "text"
							}
						],
						"url": {
							"raw": "{{url}}/categories",
							"host": [
								"{{url}}"
							],
							"path": [
								"categories"
							]
						}
					},
					"response": []
				},
				{
					"name": "Get Available Times",
					"request": {
						"method": "GET",
						"header": [
							{
								"key": "Accept",
								"type": "text",
								"value": "application/json"
							},
							{
								"key": "Content-Type",
								"type": "text",
								"value": "application/json"
							}
						],
						"url": {
							"raw": "{{url}}/available-times",
							"host": [
								"{{url}}"
							],
							"path": [
								"available-times"
							]
						}
					},
					"response": []
				},
				{
					"name": "Get Products",
					"request": {
						"method": "POST",
						"header": [
							{
								"key": "Accept",
								"type": "text",
								"value": "application/json"
							},
							{
								"key": "Content-Type",
								"type": "text",
								"value": "application/json"
							}
						],
						"body": {
							"mode": "formdata",
							"formdata": [
								{
									"key": "name",
									"value": "",
									"type": "text",
									"disabled": true
								},
								{
									"key": "category_id",
									"value": "1",
									"type": "text"
								}
							],
							"options": {
								"formdata": {}
							}
						},
						"url": {
							"raw": "{{url}}/products?page=1",
							"host": [
								"{{url}}"
							],
							"path": [
								"products"
							],
							"query": [
								{
									"key": "page",
									"value": "1"
								}
							]
						}
					},
					"response": []
				},
				{
					"name": "Get Product Info",
					"protocolProfileBehavior": {
						"disableBodyPruning": true
					},
					"request": {
						"method": "GET",
						"header": [
							{
								"key": "Accept",
								"type": "text",
								"value": "application/json"
							},
							{
								"key": "Content-Type",
								"type": "text",
								"value": "application/json"
							}
						],
						"body": {
							"mode": "raw",
							"raw": "",
							"options": {
								"raw": {}
							}
						},
						"url": {
							"raw": "{{url}}/products/16",
							"host": [
								"{{url}}"
							],
							"path": [
								"products",
								"16"
							]
						}
					},
					"response": []
				},
				{
					"name": "Get Configs",
					"request": {
						"method": "GET",
						"header": [
							{
								"key": "Accept",
								"type": "text",
								"value": "application/json"
							},
							{
								"key": "Content-Type",
								"type": "text",
								"value": "application/json"
							}
						],
						"url": {
							"raw": "{{url}}/get-configs",
							"host": [
								"{{url}}"
							],
							"path": [
								"get-configs"
							]
						}
					},
					"response": []
				},
				{
					"name": "Get Code Info",
					"request": {
						"method": "GET",
						"header": [
							{
								"key": "Accept",
								"type": "text",
								"value": "application/json"
							},
							{
								"key": "Content-Type",
								"type": "text",
								"value": "application/json"
							}
						],
						"url": {
							"raw": "{{url}}/get-code/FDFHGH3E323123",
							"host": [
								"{{url}}"
							],
							"path": [
								"get-code",
								"FDFHGH3E323123"
							]
						}
					},
					"response": []
				},
				{
					"name": "Contact Us",
					"request": {
						"method": "POST",
						"header": [],
						"body": {
							"mode": "formdata",
							"formdata": [
								{
									"key": "name",
									"value": "Tarek Mahfouz",
									"type": "text"
								},
								{
									"key": "phone",
									"value": "01273280587",
									"type": "text"
								},
								{
									"key": "message",
									"value": "Hello Everybody!",
									"type": "text"
								}
							],
							"options": {
								"formdata": {}
							}
						},
						"url": {
							"raw": "{{url}}/contact-us",
							"host": [
								"{{url}}"
							],
							"path": [
								"contact-us"
							]
						}
					},
					"response": []
				}
			],
			"protocolProfileBehavior": {}
		},
		{
			"name": "User",
			"item": [
				{
					"name": "My Profile",
					"protocolProfileBehavior": {
						"disableBodyPruning": true
					},
					"request": {
						"method": "GET",
						"header": [
							{
								"key": "Accept",
								"type": "text",
								"value": "application/json"
							},
							{
								"key": "Content-Type",
								"type": "text",
								"value": "application/json"
							},
							{
								"key": "Authorization",
								"type": "text",
								"value": "{{auth}}"
							}
						],
						"body": {
							"mode": "formdata",
							"formdata": [],
							"options": {
								"formdata": {}
							}
						},
						"url": {
							"raw": "{{url}}/me",
							"host": [
								"{{url}}"
							],
							"path": [
								"me"
							]
						}
					},
					"response": []
				},
				{
					"name": "Edit User",
					"request": {
						"method": "POST",
						"header": [
							{
								"key": "Accept",
								"type": "text",
								"value": "application/json"
							},
							{
								"key": "Content-Type",
								"name": "Content-Type",
								"value": "application/json",
								"type": "text"
							},
							{
								"key": "Authorization",
								"value": "{{auth}}",
								"type": "text"
							}
						],
						"body": {
							"mode": "formdata",
							"formdata": [
								{
									"key": "name",
									"value": "Tarek",
									"type": "text"
								},
								{
									"key": "email",
									"value": "timahfouz262@gmail.com",
									"type": "text"
								},
								{
									"key": "phone",
									"value": "01273280587",
									"type": "text"
								},
								{
									"key": "image",
									"type": "file",
									"src": "/E:/work/web_development/wamp64/www/touristguide/public/images/users/default.png"
								},
								{
									"key": "firebase",
									"value": "nullable",
									"type": "text"
								},
								{
									"key": "password",
									"value": "123456",
									"type": "text"
								},
								{
									"key": "password_confirmation",
									"value": "123456",
									"type": "text"
								},
								{
									"key": "_method",
									"value": "PUT",
									"type": "text"
								}
							],
							"options": {
								"formdata": {}
							}
						},
						"url": {
							"raw": "{{url}}/edit-profile",
							"host": [
								"{{url}}"
							],
							"path": [
								"edit-profile"
							]
						}
					},
					"response": []
				},
				{
					"name": "Add To Cart",
					"request": {
						"method": "POST",
						"header": [
							{
								"key": "Accept",
								"value": "application/json",
								"type": "text"
							},
							{
								"warning": "This is a duplicate header and will be overridden by the Content-Type header generated by Postman.",
								"key": "Content-Type",
								"value": "application/json",
								"type": "text"
							},
							{
								"key": "Authorization",
								"value": "{{auth}}",
								"type": "text"
							}
						],
						"body": {
							"mode": "formdata",
							"formdata": [
								{
									"key": "product_id",
									"value": "5",
									"type": "text"
								},
								{
									"key": "product_weight_unit_id",
									"value": "16",
									"type": "text"
								},
								{
									"key": "quantity",
									"value": "3",
									"type": "text"
								}
							],
							"options": {
								"formdata": {}
							}
						},
						"url": {
							"raw": "{{url}}/add-to-cart",
							"host": [
								"{{url}}"
							],
							"path": [
								"add-to-cart"
							]
						}
					},
					"response": []
				},
				{
					"name": "Get Cart Items",
					"protocolProfileBehavior": {
						"disableBodyPruning": true
					},
					"request": {
						"method": "GET",
						"header": [
							{
								"key": "Accept",
								"type": "text",
								"value": "application/json"
							},
							{
								"key": "Content-Type",
								"type": "text",
								"value": "application/json"
							},
							{
								"key": "Authorization",
								"type": "text",
								"value": "{{auth}}"
							}
						],
						"body": {
							"mode": "formdata",
							"formdata": [],
							"options": {
								"formdata": {}
							}
						},
						"url": {
							"raw": "{{url}}/cart-items",
							"host": [
								"{{url}}"
							],
							"path": [
								"cart-items"
							]
						}
					},
					"response": []
				},
				{
					"name": "Delete Cart Item",
					"request": {
						"method": "POST",
						"header": [
							{
								"key": "Accept",
								"type": "text",
								"value": "application/json"
							},
							{
								"warning": "This is a duplicate header and will be overridden by the Content-Type header generated by Postman.",
								"key": "Content-Type",
								"type": "text",
								"value": "application/json"
							},
							{
								"key": "Authorization",
								"type": "text",
								"value": "{{auth}}"
							}
						],
						"body": {
							"mode": "formdata",
							"formdata": [
								{
									"key": "cart_id",
									"value": "3",
									"type": "text"
								},
								{
									"key": "cart_item_id",
									"value": "5",
									"type": "text"
								}
							],
							"options": {
								"formdata": {}
							}
						},
						"url": {
							"raw": "{{url}}/delete-cart-item",
							"host": [
								"{{url}}"
							],
							"path": [
								"delete-cart-item"
							]
						}
					},
					"response": []
				},
				{
					"name": "Edit Cart Item",
					"request": {
						"method": "PUT",
						"header": [
							{
								"key": "Accept",
								"type": "text",
								"value": "application/json"
							},
							{
								"warning": "This is a duplicate header and will be overridden by the Content-Type header generated by Postman.",
								"key": "Content-Type",
								"type": "text",
								"value": "application/json"
							},
							{
								"key": "Authorization",
								"type": "text",
								"value": "{{auth}}"
							}
						],
						"body": {
							"mode": "raw",
							"raw": "{\r\n    \"cart_id\": 4,\r\n    \"items\": [\r\n        {\r\n            \"product_id\": 2,\r\n            \"product_weight_unit_id\": 11,\r\n            \"quantity\": 3\r\n        },\r\n        {\r\n            \"product_id\": 7,\r\n            \"product_weight_unit_id\": 23,\r\n            \"quantity\": 2\r\n        }\r\n    ]\r\n}",
							"options": {
								"formdata": {}
							}
						},
						"url": {
							"raw": "{{url}}/edit-cart-item",
							"host": [
								"{{url}}"
							],
							"path": [
								"edit-cart-item"
							]
						}
					},
					"response": []
				},
				{
					"name": "Checkout",
					"request": {
						"method": "POST",
						"header": [
							{
								"key": "Accept",
								"type": "text",
								"value": "application/json"
							},
							{
								"warning": "This is a duplicate header and will be overridden by the Content-Type header generated by Postman.",
								"key": "Content-Type",
								"type": "text",
								"value": "application/json"
							},
							{
								"key": "Authorization",
								"type": "text",
								"value": "{{auth}}"
							}
						],
						"body": {
							"mode": "formdata",
							"formdata": [
								{
									"key": "cart_id",
									"value": "4",
									"type": "text"
								},
								{
									"key": "day",
									"value": "2020-10-30",
									"type": "text"
								},
								{
									"key": "availability_id",
									"value": "1",
									"type": "text"
								},
								{
									"key": "payment_way",
									"value": "cach",
									"type": "text"
								},
								{
									"key": "promo_code",
									"value": "FDFHGH3E323123",
									"type": "text",
									"disabled": true
								},
								{
									"key": "lat",
									"value": "30.1432832",
									"type": "text"
								},
								{
									"key": "lon",
									"value": "31.3294848",
									"type": "text"
								},
								{
									"key": "address",
									"value": "Riadh",
									"type": "text"
								},
								{
									"key": "notes",
									"value": "Hey this's my notes",
									"type": "text"
								}
							],
							"options": {
								"formdata": {}
							}
						},
						"url": {
							"raw": "{{url}}/checkout",
							"host": [
								"{{url}}"
							],
							"path": [
								"checkout"
							]
						}
					},
					"response": []
				},
				{
					"name": "My Orders",
					"protocolProfileBehavior": {
						"disableBodyPruning": true
					},
					"request": {
						"method": "GET",
						"header": [
							{
								"key": "Accept",
								"type": "text",
								"value": "application/json"
							},
							{
								"key": "Content-Type",
								"type": "text",
								"value": "application/json"
							},
							{
								"key": "Authorization",
								"type": "text",
								"value": "{{auth}}"
							}
						],
						"body": {
							"mode": "formdata",
							"formdata": [],
							"options": {
								"formdata": {}
							}
						},
						"url": {
							"raw": "{{url}}/my-orders?status=preview",
							"host": [
								"{{url}}"
							],
							"path": [
								"my-orders"
							],
							"query": [
								{
									"key": "status",
									"value": "completed",
									"disabled": true
								},
								{
									"key": "status",
									"value": "rejected",
									"disabled": true
								},
								{
									"key": "status",
									"value": "preview"
								}
							]
						}
					},
					"response": []
				},
				{
					"name": "Order Details",
					"protocolProfileBehavior": {
						"disableBodyPruning": true
					},
					"request": {
						"method": "GET",
						"header": [
							{
								"key": "Accept",
								"type": "text",
								"value": "application/json"
							},
							{
								"key": "Content-Type",
								"type": "text",
								"value": "application/json"
							},
							{
								"key": "Authorization",
								"type": "text",
								"value": "{{auth}}"
							}
						],
						"body": {
							"mode": "formdata",
							"formdata": [],
							"options": {
								"formdata": {}
							}
						},
						"url": {
							"raw": "{{url}}/my-orders/1",
							"host": [
								"{{url}}"
							],
							"path": [
								"my-orders",
								"1"
							]
						}
					},
					"response": []
				},
				{
					"name": "Send Receipt",
					"protocolProfileBehavior": {
						"disableBodyPruning": true
					},
					"request": {
						"method": "GET",
						"header": [
							{
								"key": "Accept",
								"type": "text",
								"value": "application/json"
							},
							{
								"key": "Content-Type",
								"type": "text",
								"value": "application/json"
							},
							{
								"key": "Authorization",
								"type": "text",
								"value": "{{auth}}"
							}
						],
						"body": {
							"mode": "formdata",
							"formdata": [],
							"options": {
								"formdata": {}
							}
						},
						"url": {
							"raw": "{{url}}/send-receipt/3",
							"host": [
								"{{url}}"
							],
							"path": [
								"send-receipt",
								"3"
							]
						}
					},
					"response": []
				}
			],
			"protocolProfileBehavior": {}
		}
	],
	"protocolProfileBehavior": {}
}